,Itr,ReturnAvg,ReturnStd,ReturnMin,ReturnMax,TrainingLossStart,TrainingLossFinal
0,-1,-1.49030061458211,1.96442317789997,-6.73196506500244,0.524615347385407,,
1,0,2.68555658617558,9.09461957998878,-13.1399507522583,11.7655467987061,4549715.5,2189019.5
2,1,2.83447813987732,8.84255504608154,-12.9582033157349,13.1878929138184,2327760,917757.625
3,2,-13.3166027069092,0.523734867572784,-14.2442970275879,-12.6227235794067,946551.3125,757443.9375
4,3,-12.2700672149658,1.21465873718262,-13.1478567123413,-9.86188507080078,796168.0625,620884.3125
5,4,13.653948407387,7.04587911515901,4.76679327594889,24.832447052002,177610.4375,27999.8671875
6,5,16.84889793396,16.4501438140869,-15.005090713501,28.6303977966309,37110.37109375,27268.546875
